PPOL561 | Accelerated Statistics for Public Policy II Week 11 Synthetic Control
…
![:space 5]  
- What effect did the law have on cigarette sales?

---

![:space 10]

```r
# Cigarette Sales Data
smoking <- read_csv("https://raw.githubusercontent.com/edunford/ppol561/master/Lectures/week_14/data/smoking.csv")
smoking
```

```
## # A tibble: 1,209 x 7
##    state          year cigsale lnincome  beer age15to24 retprice
##    <chr>         <dbl>   <dbl>    <dbl> <dbl>     <dbl>    <dbl>
##  1 Rhode Island   1970   124.        NA    NA     0.183     39.3
##  2 Tennessee      1970    99.8       NA    NA     0.178     39.9
##  3 Indiana        1970   135.        NA    NA     0.177     30.6
##  4 Nevada         1970   190.        NA    NA     0.162     38.9
##  5 Louisiana      1970   116.        NA    NA     0.185     34.3
##  6 Oklahoma       1970   108.        NA    NA     0.175     38.4
##  7 New Hampshire  1970   266.        NA    NA     0.171     31.4
##  8 North Dakota   1970    93.8       NA    NA     0.184     37.3
##  9 Arkansas       1970   100.        NA    NA     0.169     36.7
## 10 Virginia       1970   124.        NA    NA     0.189     28.8
## # … with 1,199 more rows
```
…
<img src="week11-synthetic-control-ppol561_files/figure-html/unnamed-chunk-16-1.png" style="display: block; margin: auto;" />

---

### Placebo tests: how rare is California?

```r
smoking_out %>% 
  grab_signficance(time_window = 1970:2000) %>% 
  select(unit_name,rank,fishers_exact_pvalue,z_score)
```

```
## # A tibble: 39 x 4
##    unit_name      rank fishers_exact_pvalue z_score
##    <chr>         <int>                <dbl>   <dbl>
##  1 California        1               0.0256  4.14  
##  2 Missouri          2               0.0513  2.86  
##  3 Indiana           3               0.0769  1.83  
##  4 Virginia          4               0.103   1.05  
##  5 Tennessee         5               0.128   0.959 
##  6 Illinois          6               0.154   0.772 
##  7 Georgia           7               0.179   0.690 
##  8 Mississippi       8               0.205   0.136 
##  9 West Virginia     9               0.231   0.0784
## 10 Wisconsin        10               0.256  -0.0561
## # … with 29 more rows
```
…
