PPOL561 | Accelerated Statistics for Public Policy II Week 5 Panel Data & Difference-in-Difference
…
--

```r
broom::tidy(lm(crime~police + factor(city),data=D)) 
```

```
## # A tibble: 51 x 5
##    term               estimate std.error statistic  p.value
##    <chr>                 <dbl>     <dbl>     <dbl>    <dbl>
##  1 (Intercept)          15.1       1.89       7.95 1.24e-14
##  2 police               -0.629     0.125     -5.04 6.54e- 7
##  3 factor(city)city10    3.07      1.25       2.46 1.41e- 2
##  4 factor(city)city11    7.18      1.32       5.44 8.35e- 8
##  5 factor(city)city12    3.01      1.23       2.45 1.46e- 2
##  6 factor(city)city13    3.39      1.26       2.70 7.15e- 3
##  7 factor(city)city14    8.09      1.46       5.54 4.82e- 8
##  8 factor(city)city15   13.9       1.85       7.53 2.35e-13
##  9 factor(city)city16    7.49      1.45       5.16 3.60e- 7
## 10 factor(city)city17    4.74      1.28       3.69 2.47e- 4
## # … with 41 more rows
```
…
