PPOL561 | Accelerated Statistics for Public Policy II Week 8 Regression Discontinuity
…
---

### In-Practice

```r
dat
```

```
## # A tibble: 1,000 x 3
##          y      x     t
##      <dbl>  <dbl> <dbl>
##  1  3.00    0.586     1
##  2  1.37    0.709     1
##  3  0.122  -0.109     0
##  4  0.131  -0.453     0
##  5  0.937   0.606     1
##  6 -1.26   -1.82      0
##  7  1.24    0.630     1
##  8 -0.0861 -0.276     0
##  9  1.61   -0.284     0
## 10  0.455  -0.919     0
## # … with 990 more rows
```

---

### In-Practice

```r
dat  %>%  
  mutate(bin = cut_interval(x, 25))
```

```
## # A tibble: 1,000 x 4
##          y      x     t bin             
##      <dbl>  <dbl> <dbl> <fct>           
##  1  3.00    0.586     1 (0.398,0.643]   
##  2  1.37    0.709     1 (0.643,0.887]   
##  3  0.122  -0.109     0 (-0.335,-0.0903]
##  4  0.131  -0.453     0 (-0.579,-0.335] 
##  5  0.937   0.606     1 (0.398,0.643]   
##  6 -1.26   -1.82      0 (-2.05,-1.8]    
##  7  1.24    0.630     1 (0.398,0.643]   
##  8 -0.0861 -0.276     0 (-0.335,-0.0903]
##  9  1.61   -0.284     0 (-0.335,-0.0903]
## 10  0.455  -0.919     0 (-1.07,-0.823]  
## # … with 990 more rows
```

---

### In-Practice

```r
dat  %>%  
  mutate(bin = cut_interval(x, 25)) %>% 
  group_by(bin) %>%
  summarize(y = mean(y),
            x = mean(x)) 
```

```
## # A tibble: 24 x 3
##    bin                  y      x
##    <fct>            <dbl>  <dbl>
##  1 [-2.78,-2.53]    0.331 -2.62 
##  2 (-2.53,-2.29]   -0.508 -2.38 
##  3 (-2.29,-2.05]    0.480 -2.16 
##  4 (-2.05,-1.8]     0.435 -1.89 
##  5 (-1.8,-1.56]     0.671 -1.66 
##  6 (-1.56,-1.31]    0.405 -1.42 
##  7 (-1.31,-1.07]    0.755 -1.19 
##  8 (-1.07,-0.823]   0.850 -0.952
##  9 (-0.823,-0.579]  0.721 -0.700
## 10 (-0.579,-0.335]  0.982 -0.462
## # … with 14 more rows
```
…
