PPOL561 | Accelerated Statistics for Public Policy II Week 3 OLS Review
…
x = rnorm(N)

dummy = rbinom(N,1,.5)

e = rnorm(N)

y = 1 + -1*x + -1*dummy + -4*dummy*x + e

*D = tibble(y,x,dummy) # tibble data frame

D
```

```
## # A tibble: 1,000 x 3
##         y       x dummy
##     <dbl>   <dbl> <int>
##  1  0.739 -0.560      0
##  2  0.923 -0.230      0
##  3 -1.46   1.56       0
##  4  0.275  0.0705     1
##  5  1.99   0.129      0
##  6 -6.45   1.72       1
##  7  0.905  0.461      0
##  8  1.39  -1.27       0
##  9  2.71  -0.687      0
## 10  2.35  -0.446      0
## # … with 990 more rows
```
…
